module gitlab.com/ullgren/freeciv-discordbot

go 1.18

require (
	github.com/bwmarrin/discordgo v0.25.0
	github.com/fsnotify/fsnotify v1.5.4
	github.com/pkg/errors v0.9.1
)

require (
	github.com/hashicorp/hcl v1.0.0 // indirect
	github.com/inconshreveable/mousetrap v1.0.0 // indirect
	github.com/magiconair/properties v1.8.6 // indirect
	github.com/mitchellh/mapstructure v1.5.0 // indirect
	github.com/pelletier/go-toml v1.9.5 // indirect
	github.com/pelletier/go-toml/v2 v2.0.1 // indirect
	github.com/spf13/afero v1.8.2 // indirect
	github.com/spf13/cast v1.5.0 // indirect
	github.com/spf13/jwalterweatherman v1.1.0 // indirect
	github.com/spf13/pflag v1.0.5 // indirect
	github.com/subosito/gotenv v1.3.0 // indirect
	golang.org/x/sys v0.0.0-20220520151302-bc2c85ada10a // indirect
	golang.org/x/text v0.3.7 // indirect
	gopkg.in/ini.v1 v1.66.4 // indirect
	gopkg.in/yaml.v2 v2.4.0 // indirect
	gopkg.in/yaml.v3 v3.0.0 // indirect
)

require (
	github.com/gorilla/websocket v1.4.2 // indirect
	github.com/mitchellh/go-homedir v1.1.0
	github.com/spf13/cobra v1.5.0
	github.com/spf13/viper v1.12.0
	golang.org/x/crypto v0.0.0-20220411220226-7b82a4e95df4 // indirect
)
